R Notebook for Chord Learning Imaging project: functional connectivity
…
fc_mem.l<-melt(fc_mem,id.vars=c("sub","run","group"),variable.name="roipair",value.name="fc")  
#now ROI pair is long format with roipair indicating pair and fc value in variable fc

fc_mem.l$run<-as.factor(fc_mem.l$run)
fc_mem.l$roipair<-as.factor(fc_mem.l$roipair)
fc_mem.l$group<-as.factor(fc_mem.l$group)

fc_meml_summary<- fc_mem.l %>% group_by(run,roipair,group) %>%
  summarise(N=n(),mean_fc=mean(fc))  
fc_meml_summary

## # A tibble: 42 x 5
## # Groups:   run, roipair [?]
##       run          roipair   group     N      mean_fc
##    <fctr>           <fctr>  <fctr> <int>        <dbl>
##  1      0  bdc.bmtl_dennis   older    12  0.109206750
##  2      0  bdc.bmtl_dennis younger    12 -0.085910408
##  3      0 bdcp.bmtl_dennis   older    12  0.054009583
##  4      0 bdcp.bmtl_dennis younger    12 -0.084188667
##  5      0 bdrp.bmtl_dennis   older    12  0.053636500
##  6      0 bdrp.bmtl_dennis younger    12 -0.043973083
##  7      1  bdc.bmtl_dennis   older    12 -0.081785500
##  8      1  bdc.bmtl_dennis younger    12 -0.042114200
##  9      1 bdcp.bmtl_dennis   older    12 -0.010415833
## 10      1 bdcp.bmtl_dennis younger    12  0.002284833
## # ... with 32 more rows
…
